…
    ## The following objects are masked from 'package:stats':
    ## 
    ##     filter, lag

    ## The following objects are masked from 'package:base':
    ## 
    ##     intersect, setdiff, setequal, union

``` r
library(nycflights13)
library(ggplot2)
flights
```

    ## # A tibble: 336,776 × 19
    ##     year month   day dep_time sched_dep_time dep_delay arr_time sched_arr_time
    ##    <int> <int> <int>    <int>          <int>     <dbl>    <int>          <int>
    ##  1  2013     1     1      517            515         2      830            819
    ##  2  2013     1     1      533            529         4      850            830
    ##  3  2013     1     1      542            540         2      923            850
    ##  4  2013     1     1      544            545        -1     1004           1022
    ##  5  2013     1     1      554            600        -6      812            837
    ##  6  2013     1     1      554            558        -4      740            728
    ##  7  2013     1     1      555            600        -5      913            854
    ##  8  2013     1     1      557            600        -3      709            723
    ##  9  2013     1     1      557            600        -3      838            846
    ## 10  2013     1     1      558            600        -2      753            745
    ## # … with 336,766 more rows, and 11 more variables: arr_delay <dbl>,
    ## #   carrier <chr>, flight <int>, tailnum <chr>, origin <chr>, dest <chr>,
    ## #   air_time <dbl>, distance <dbl>, hour <dbl>, minute <dbl>, time_hour <dttm>
…
Based on the list and the plot, we find that AS, HA, and AA have a
better performance overall; in other words, these three carriers are my
first option.

``` r
flights %>%
  left_join(weather) %>%
  group_by(temp) %>%
  summarise(arr_delay = mean(arr_delay, na.rm = TRUE)) %>%
  arrange(arr_delay)
```

    ## Joining, by = c("year", "month", "day", "origin", "hour", "time_hour")

    ## # A tibble: 169 × 2
    ##     temp arr_delay
    ##    <dbl>     <dbl>
    ##  1  46.6    -21   
    ##  2  50.4    -18.2 
    ##  3  58.1    -17.5 
    ##  4  47.8    -15.9 
    ##  5  42.3    -12.5 
    ##  6  52.7    -11.8 
    ##  7  50.5    -10.9 
    ##  8  49.8    -10.6 
    ##  9  51.3     -9.82
    ## 10  55.6     -8.73
    ## # … with 159 more rows
…
``` r
flights %>%
  left_join(weather) %>%
  group_by(wind_speed) %>%
  summarise(arr_delay = mean(arr_delay, na.rm = TRUE)) %>%
  arrange(arr_delay)
```

    ## Joining, by = c("year", "month", "day", "origin", "hour", "time_hour")

    ## # A tibble: 35 × 2
    ##    wind_speed arr_delay
    ##         <dbl>     <dbl>
    ##  1      38.0      0.533
    ##  2       5.75     2.84 
    ##  3       0        3.26 
    ##  4       3.45     3.54 
    ##  5       4.60     3.68 
    ##  6       6.90     4.60 
    ##  7      36.8      5    
    ##  8       9.21     5.70 
    ##  9      11.5      5.81 
    ## 10      10.4      6.17 
    ## # … with 25 more rows
…
